^D:\VISUAL STUDIO PROJECTS\ATH\2012 SEM2 GRUPA 2B\OBLICZANIE PENSJI PRZYKLAD\OBLICZANIEPENSJI\BASEBONUS.CPP|D:\VISUAL STUDIO PROJECTS\ATH\2012 SEM2 GRUPA 2B\OBLICZANIE PENSJI PRZYKLAD\OBLICZANIEPENSJI\DEMOBONUS.CPP|D:\VISUAL STUDIO PROJECTS\ATH\2012 SEM2 GRUPA 2B\OBLICZANIE PENSJI PRZYKLAD\OBLICZANIEPENSJI\EMPLOYEE.CPP|D:\VISUAL STUDIO PROJECTS\ATH\2012 SEM2 GRUPA 2B\OBLICZANIE PENSJI PRZYKLAD\OBLICZANIEPENSJI\FACTORY.CPP|D:\VISUAL STUDIO PROJECTS\ATH\2012 SEM2 GRUPA 2B\OBLICZANIE PENSJI PRZYKLAD\OBLICZANIEPENSJI\MOTIVATIONBONUS.CPP|D:\VISUAL STUDIO PROJECTS\ATH\2012 SEM2 GRUPA 2B\OBLICZANIE PENSJI PRZYKLAD\OBLICZANIEPENSJI\OBLICZANIEPENSJI.CPP|D:\VISUAL STUDIO PROJECTS\ATH\2012 SEM2 GRUPA 2B\OBLICZANIE PENSJI PRZYKLAD\OBLICZANIEPENSJI\SALARYCALCULATOR.CPP|D:\VISUAL STUDIO PROJECTS\ATH\2012 SEM2 GRUPA 2B\OBLICZANIE PENSJI PRZYKLAD\OBLICZANIEPENSJI\STDAFX.CPP
D:\VISUAL STUDIO PROJECTS\ATH\2012 SEM2 GRUPA 2B\OBLICZANIE PENSJI PRZYKLAD\OBLICZANIEPENSJI\DEBUG\BASEBONUS.OBJ
D:\VISUAL STUDIO PROJECTS\ATH\2012 SEM2 GRUPA 2B\OBLICZANIE PENSJI PRZYKLAD\OBLICZANIEPENSJI\DEBUG\DEMOBONUS.OBJ
D:\VISUAL STUDIO PROJECTS\ATH\2012 SEM2 GRUPA 2B\OBLICZANIE PENSJI PRZYKLAD\OBLICZANIEPENSJI\DEBUG\EMPLOYEE.OBJ
D:\VISUAL STUDIO PROJECTS\ATH\2012 SEM2 GRUPA 2B\OBLICZANIE PENSJI PRZYKLAD\OBLICZANIEPENSJI\DEBUG\FACTORY.OBJ
D:\VISUAL STUDIO PROJECTS\ATH\2012 SEM2 GRUPA 2B\OBLICZANIE PENSJI PRZYKLAD\OBLICZANIEPENSJI\DEBUG\MOTIVATIONBONUS.OBJ
D:\VISUAL STUDIO PROJECTS\ATH\2012 SEM2 GRUPA 2B\OBLICZANIE PENSJI PRZYKLAD\OBLICZANIEPENSJI\DEBUG\OBLICZANIEPENSJI.OBJ
D:\VISUAL STUDIO PROJECTS\ATH\2012 SEM2 GRUPA 2B\OBLICZANIE PENSJI PRZYKLAD\OBLICZANIEPENSJI\DEBUG\SALARYCALCULATOR.OBJ
D:\VISUAL STUDIO PROJECTS\ATH\2012 SEM2 GRUPA 2B\OBLICZANIE PENSJI PRZYKLAD\OBLICZANIEPENSJI\DEBUG\STDAFX.OBJ
^D:\VISUAL STUDIO PROJECTS\ATH\2012 SEM2 GRUPA 2B\OBLICZANIE PENSJI PRZYKLAD\OBLICZANIEPENSJI\BASEBONUS.CPP
D:\VISUAL STUDIO PROJECTS\ATH\2012 SEM2 GRUPA 2B\OBLICZANIE PENSJI PRZYKLAD\OBLICZANIEPENSJI\DEBUG\VC110.PDB
^D:\VISUAL STUDIO PROJECTS\ATH\2012 SEM2 GRUPA 2B\OBLICZANIE PENSJI PRZYKLAD\OBLICZANIEPENSJI\DEMOBONUS.CPP
D:\VISUAL STUDIO PROJECTS\ATH\2012 SEM2 GRUPA 2B\OBLICZANIE PENSJI PRZYKLAD\OBLICZANIEPENSJI\DEBUG\VC110.PDB
^D:\VISUAL STUDIO PROJECTS\ATH\2012 SEM2 GRUPA 2B\OBLICZANIE PENSJI PRZYKLAD\OBLICZANIEPENSJI\EMPLOYEE.CPP
D:\VISUAL STUDIO PROJECTS\ATH\2012 SEM2 GRUPA 2B\OBLICZANIE PENSJI PRZYKLAD\OBLICZANIEPENSJI\DEBUG\VC110.PDB
^D:\VISUAL STUDIO PROJECTS\ATH\2012 SEM2 GRUPA 2B\OBLICZANIE PENSJI PRZYKLAD\OBLICZANIEPENSJI\FACTORY.CPP
D:\VISUAL STUDIO PROJECTS\ATH\2012 SEM2 GRUPA 2B\OBLICZANIE PENSJI PRZYKLAD\OBLICZANIEPENSJI\DEBUG\VC110.PDB
D:\VISUAL STUDIO PROJECTS\ATH\2012 SEM2 GRUPA 2B\OBLICZANIE PENSJI PRZYKLAD\OBLICZANIEPENSJI\DEBUG\FACTORY.OBJ
^D:\VISUAL STUDIO PROJECTS\ATH\2012 SEM2 GRUPA 2B\OBLICZANIE PENSJI PRZYKLAD\OBLICZANIEPENSJI\MOTIVATIONBONUS.CPP
D:\VISUAL STUDIO PROJECTS\ATH\2012 SEM2 GRUPA 2B\OBLICZANIE PENSJI PRZYKLAD\OBLICZANIEPENSJI\DEBUG\VC110.PDB
^D:\VISUAL STUDIO PROJECTS\ATH\2012 SEM2 GRUPA 2B\OBLICZANIE PENSJI PRZYKLAD\OBLICZANIEPENSJI\OBLICZANIEPENSJI.CPP
D:\VISUAL STUDIO PROJECTS\ATH\2012 SEM2 GRUPA 2B\OBLICZANIE PENSJI PRZYKLAD\OBLICZANIEPENSJI\DEBUG\VC110.PDB
^D:\VISUAL STUDIO PROJECTS\ATH\2012 SEM2 GRUPA 2B\OBLICZANIE PENSJI PRZYKLAD\OBLICZANIEPENSJI\SALARYCALCULATOR.CPP
D:\VISUAL STUDIO PROJECTS\ATH\2012 SEM2 GRUPA 2B\OBLICZANIE PENSJI PRZYKLAD\OBLICZANIEPENSJI\DEBUG\VC110.PDB
^D:\VISUAL STUDIO PROJECTS\ATH\2012 SEM2 GRUPA 2B\OBLICZANIE PENSJI PRZYKLAD\OBLICZANIEPENSJI\STDAFX.CPP
D:\VISUAL STUDIO PROJECTS\ATH\2012 SEM2 GRUPA 2B\OBLICZANIE PENSJI PRZYKLAD\OBLICZANIEPENSJI\DEBUG\VC110.PDB
^D:\VISUAL STUDIO PROJECTS\ATH\2012 SEM2 GRUPA 2B\OBLICZANIE PENSJI PRZYKLAD\OBLICZANIEPENSJI\DEMOBONUS.CPP|D:\VISUAL STUDIO PROJECTS\ATH\2012 SEM2 GRUPA 2B\OBLICZANIE PENSJI PRZYKLAD\OBLICZANIEPENSJI\FACTORY.CPP
D:\VISUAL STUDIO PROJECTS\ATH\2012 SEM2 GRUPA 2B\OBLICZANIE PENSJI PRZYKLAD\OBLICZANIEPENSJI\DEBUG\DEMOBONUS.OBJ
D:\VISUAL STUDIO PROJECTS\ATH\2012 SEM2 GRUPA 2B\OBLICZANIE PENSJI PRZYKLAD\OBLICZANIEPENSJI\DEBUG\FACTORY.OBJ
^D:\VISUAL STUDIO PROJECTS\ATH\2012 SEM2 GRUPA 2B\OBLICZANIE PENSJI PRZYKLAD\OBLICZANIEPENSJI\EMPLOYEE.CPP|D:\VISUAL STUDIO PROJECTS\ATH\2012 SEM2 GRUPA 2B\OBLICZANIE PENSJI PRZYKLAD\OBLICZANIEPENSJI\FACTORY.CPP|D:\VISUAL STUDIO PROJECTS\ATH\2012 SEM2 GRUPA 2B\OBLICZANIE PENSJI PRZYKLAD\OBLICZANIEPENSJI\OBLICZANIEPENSJI.CPP|D:\VISUAL STUDIO PROJECTS\ATH\2012 SEM2 GRUPA 2B\OBLICZANIE PENSJI PRZYKLAD\OBLICZANIEPENSJI\SALARYCALCULATOR.CPP
D:\VISUAL STUDIO PROJECTS\ATH\2012 SEM2 GRUPA 2B\OBLICZANIE PENSJI PRZYKLAD\OBLICZANIEPENSJI\DEBUG\EMPLOYEE.OBJ
D:\VISUAL STUDIO PROJECTS\ATH\2012 SEM2 GRUPA 2B\OBLICZANIE PENSJI PRZYKLAD\OBLICZANIEPENSJI\DEBUG\FACTORY.OBJ
D:\VISUAL STUDIO PROJECTS\ATH\2012 SEM2 GRUPA 2B\OBLICZANIE PENSJI PRZYKLAD\OBLICZANIEPENSJI\DEBUG\OBLICZANIEPENSJI.OBJ
D:\VISUAL STUDIO PROJECTS\ATH\2012 SEM2 GRUPA 2B\OBLICZANIE PENSJI PRZYKLAD\OBLICZANIEPENSJI\DEBUG\SALARYCALCULATOR.OBJ
