^D:\VISUAL STUDIO PROJECTS\ATH\2012 SEM2 GRUPA 2B\4 DZIEDZICZENIE\DZIEDZICZENIE\DZIEDZICZENIE.CPP|D:\VISUAL STUDIO PROJECTS\ATH\2012 SEM2 GRUPA 2B\4 DZIEDZICZENIE\DZIEDZICZENIE\PERSON.CPP|D:\VISUAL STUDIO PROJECTS\ATH\2012 SEM2 GRUPA 2B\4 DZIEDZICZENIE\DZIEDZICZENIE\STDAFX.CPP|D:\VISUAL STUDIO PROJECTS\ATH\2012 SEM2 GRUPA 2B\4 DZIEDZICZENIE\DZIEDZICZENIE\STUDENT.CPP
D:\VISUAL STUDIO PROJECTS\ATH\2012 SEM2 GRUPA 2B\4 DZIEDZICZENIE\DZIEDZICZENIE\DEBUG\DZIEDZICZENIE.OBJ
D:\VISUAL STUDIO PROJECTS\ATH\2012 SEM2 GRUPA 2B\4 DZIEDZICZENIE\DZIEDZICZENIE\DEBUG\PERSON.OBJ
D:\VISUAL STUDIO PROJECTS\ATH\2012 SEM2 GRUPA 2B\4 DZIEDZICZENIE\DZIEDZICZENIE\DEBUG\STDAFX.OBJ
D:\VISUAL STUDIO PROJECTS\ATH\2012 SEM2 GRUPA 2B\4 DZIEDZICZENIE\DZIEDZICZENIE\DEBUG\STUDENT.OBJ
^D:\VISUAL STUDIO PROJECTS\ATH\2012 SEM2 GRUPA 2B\4 DZIEDZICZENIE\DZIEDZICZENIE\DZIEDZICZENIE.CPP
D:\VISUAL STUDIO PROJECTS\ATH\2012 SEM2 GRUPA 2B\4 DZIEDZICZENIE\DZIEDZICZENIE\DEBUG\VC110.PDB
^D:\VISUAL STUDIO PROJECTS\ATH\2012 SEM2 GRUPA 2B\4 DZIEDZICZENIE\DZIEDZICZENIE\PERSON.CPP
D:\VISUAL STUDIO PROJECTS\ATH\2012 SEM2 GRUPA 2B\4 DZIEDZICZENIE\DZIEDZICZENIE\DEBUG\VC110.PDB
^D:\VISUAL STUDIO PROJECTS\ATH\2012 SEM2 GRUPA 2B\4 DZIEDZICZENIE\DZIEDZICZENIE\STDAFX.CPP
D:\VISUAL STUDIO PROJECTS\ATH\2012 SEM2 GRUPA 2B\4 DZIEDZICZENIE\DZIEDZICZENIE\DEBUG\VC110.PDB
^D:\VISUAL STUDIO PROJECTS\ATH\2012 SEM2 GRUPA 2B\4 DZIEDZICZENIE\DZIEDZICZENIE\STUDENT.CPP
D:\VISUAL STUDIO PROJECTS\ATH\2012 SEM2 GRUPA 2B\4 DZIEDZICZENIE\DZIEDZICZENIE\DEBUG\VC110.PDB
^D:\VISUAL STUDIO PROJECTS\ATH\2012 SEM2 GRUPA 3A\4 DZIEDZICZENIE\DZIEDZICZENIE\DZIEDZICZENIE.CPP|D:\VISUAL STUDIO PROJECTS\ATH\2012 SEM2 GRUPA 3A\4 DZIEDZICZENIE\DZIEDZICZENIE\PERSON.CPP|D:\VISUAL STUDIO PROJECTS\ATH\2012 SEM2 GRUPA 3A\4 DZIEDZICZENIE\DZIEDZICZENIE\STDAFX.CPP|D:\VISUAL STUDIO PROJECTS\ATH\2012 SEM2 GRUPA 3A\4 DZIEDZICZENIE\DZIEDZICZENIE\STUDENT.CPP
D:\VISUAL STUDIO PROJECTS\ATH\2012 SEM2 GRUPA 3A\4 DZIEDZICZENIE\DZIEDZICZENIE\DEBUG\DZIEDZICZENIE.OBJ
D:\VISUAL STUDIO PROJECTS\ATH\2012 SEM2 GRUPA 3A\4 DZIEDZICZENIE\DZIEDZICZENIE\DEBUG\PERSON.OBJ
D:\VISUAL STUDIO PROJECTS\ATH\2012 SEM2 GRUPA 3A\4 DZIEDZICZENIE\DZIEDZICZENIE\DEBUG\STDAFX.OBJ
D:\VISUAL STUDIO PROJECTS\ATH\2012 SEM2 GRUPA 3A\4 DZIEDZICZENIE\DZIEDZICZENIE\DEBUG\STUDENT.OBJ
^D:\VISUAL STUDIO PROJECTS\ATH\2012 SEM2 GRUPA 3A\4 DZIEDZICZENIE\DZIEDZICZENIE\DZIEDZICZENIE.CPP
D:\VISUAL STUDIO PROJECTS\ATH\2012 SEM2 GRUPA 3A\4 DZIEDZICZENIE\DZIEDZICZENIE\DEBUG\VC110.PDB
^D:\VISUAL STUDIO PROJECTS\ATH\2012 SEM2 GRUPA 3A\4 DZIEDZICZENIE\DZIEDZICZENIE\PERSON.CPP
D:\VISUAL STUDIO PROJECTS\ATH\2012 SEM2 GRUPA 3A\4 DZIEDZICZENIE\DZIEDZICZENIE\DEBUG\VC110.PDB
^D:\VISUAL STUDIO PROJECTS\ATH\2012 SEM2 GRUPA 3A\4 DZIEDZICZENIE\DZIEDZICZENIE\STDAFX.CPP
D:\VISUAL STUDIO PROJECTS\ATH\2012 SEM2 GRUPA 3A\4 DZIEDZICZENIE\DZIEDZICZENIE\DEBUG\VC110.PDB
^D:\VISUAL STUDIO PROJECTS\ATH\2012 SEM2 GRUPA 3A\4 DZIEDZICZENIE\DZIEDZICZENIE\STUDENT.CPP
D:\VISUAL STUDIO PROJECTS\ATH\2012 SEM2 GRUPA 3A\4 DZIEDZICZENIE\DZIEDZICZENIE\DEBUG\VC110.PDB
